<?xml version="1.0" standalone="no"?>
<!DOCTYPE svg PUBLIC "-//W3C//DTD SVG 20010904//EN"
 "http://www.w3.org/TR/2001/REC-SVG-20010904/DTD/svg10.dtd">
<svg version="1.0" xmlns="http://www.w3.org/2000/svg"
 width="512.000000pt" height="512.000000pt" viewBox="0 0 512.000000 512.000000"
 preserveAspectRatio="xMidYMid meet">
<metadata>
Created by potrace 1.11, written by Peter Selinger 2001-2013
</metadata>
<g transform="translate(0.000000,512.000000) scale(0.100000,-0.100000)"
fill="#000000" stroke="none">
<path d="M2170 5101 c-305 -56 -516 -124 -760 -245 -121 -60 -154 -79 -270
-155 -88 -58 -251 -183 -257 -198 -3 -7 -9 -13 -15 -13 -12 0 -238 -226 -238
-238 0 -6 -6 -12 -13 -15 -23 -9 -163 -199 -262 -357 -44 -70 -149 -285 -188
-385 -64 -166 -117 -365 -152 -569 -18 -104 -21 -600 -5 -706 28 -184 92 -427
157 -595 39 -101 144 -316 188 -385 138 -218 231 -336 390 -495 116 -117 281
-257 353 -300 10 -5 38 -25 64 -42 26 -18 50 -33 54 -33 4 0 21 -10 38 -23 17
-12 55 -33 84 -46 28 -14 52 -28 52 -33 0 -4 6 -8 13 -8 8 0 40 -13 73 -29
133 -66 359 -143 514 -176 238 -51 283 -55 574 -55 286 1 321 4 551 51 170 34
513 157 615 220 8 5 35 19 60 32 25 12 59 32 77 45 17 12 34 22 38 22 3 0 27
15 53 33 26 17 54 37 64 42 173 104 549 480 653 653 6 10 25 38 43 64 17 26
32 50 32 53 0 4 10 21 23 38 12 18 32 52 44 77 13 25 27 52 32 60 63 102 186
445 220 615 47 230 50 265 51 551 0 291 -4 336 -55 574 -33 155 -110 381 -176
514 -16 33 -29 65 -29 73 0 7 -4 13 -8 13 -5 0 -19 24 -33 53 -13 28 -34 66
-46 83 -13 17 -23 34 -23 38 0 4 -15 28 -33 54 -17 26 -36 54 -42 64 -43 72
-183 237 -300 353 -159 159 -277 252 -495 390 -69 44 -284 149 -385 188 -168
65 -411 129 -595 157 -36 5 -193 9 -350 9 -224 -1 -305 -4 -380 -18z m60 -899
l0 -148 -60 -12 c-169 -31 -269 -136 -320 -336 -18 -70 -20 -112 -20 -355 0
-342 -8 -416 -53 -514 -33 -71 -104 -178 -128 -192 -7 -5 -2 -16 14 -34 78
-84 143 -219 157 -322 5 -40 10 -200 10 -355 0 -246 2 -290 20 -358 50 -196
164 -313 323 -332 l57 -6 0 -154 0 -154 -53 0 c-30 0 -89 9 -132 20 -248 63
-420 234 -516 510 l-33 95 -6 360 c-7 404 -8 408 -87 496 -48 53 -105 79 -194
86 l-70 6 3 126 3 126 62 7 c74 8 174 57 204 99 11 15 32 54 47 86 l27 58 5
360 6 360 33 95 c49 145 102 232 201 331 116 116 183 150 385 192 11 3 41 5
68 6 l47 1 0 -148z m800 128 c221 -45 393 -193 497 -425 59 -131 73 -236 73
-552 0 -280 8 -370 37 -428 49 -96 134 -152 242 -162 l61 -6 0 -127 0 -127
-69 -6 c-135 -11 -225 -88 -255 -217 -12 -50 -16 -130 -16 -348 0 -245 -3
-297 -20 -383 -43 -211 -168 -407 -324 -508 -86 -56 -219 -101 -323 -108 l-83
-6 0 155 0 154 77 12 c83 13 142 44 200 104 38 40 100 161 114 226 6 26 14
202 18 392 7 320 9 349 29 405 28 75 84 168 130 217 l36 38 -31 32 c-48 51
-102 143 -131 221 -25 70 -25 80 -32 427 -8 381 -13 417 -66 522 -60 119 -168
198 -289 213 l-55 7 0 149 0 149 43 0 c23 0 85 -9 137 -20z"/>
</g>
</svg>
